Introduction to moveAcc • moveAcc
…
)
lbbg_data <- lbbg_data %>%
  mutate(acceleration = as_acc(.)) %>%
  filter(!is.na(acceleration) | sensor_type_id==653) %>%
  select(acceleration)
lbbg_data
#> A <move2> with `track_id_column` "individual_local_identifier" and
#> `time_column` "timestamp"
#> Containing 5 tracks lasting on average 23.3 hours in a
#> Simple feature collection with 378 features and 3 fields (with 59 geometries empty)
#> Geometry type: POINT
#> Dimension:     XY
#> Bounding box:  xmin: -6.418534 ymin: 35.70378 xmax: 2.975934 ymax: 50.48241
#> Geodetic CRS:  WGS 84
#> # A tibble: 378 × 4
#>    acceleration             geometry timestamp          
#>           <acc>          <POINT [°]> <dttm>             
#>  1           NA (0.9766757 49.94388) 2021-03-03 00:46:30
#>  2           NA  (1.216243 50.01877) 2021-03-03 01:46:31
#>  3           NA  (1.275341 50.04811) 2021-03-03 02:46:41
#>  4           NA  (1.273401 50.04827) 2021-03-03 03:07:07
#>  5           NA  (1.270243 50.04776) 2021-03-03 03:27:18
#>  6           NA  (1.265624 50.04643) 2021-03-03 03:47:19
#>  7           NA  (1.259936 50.04491) 2021-03-03 04:07:20
#>  8           NA  (1.253495 50.04293) 2021-03-03 04:27:36
#>  9           NA  (1.246066 50.04075) 2021-03-03 04:47:34
#> 10           NA  (1.237192 50.03854) 2021-03-03 05:07:33
#> # ℹ 368 more rows
#> # ℹ 1 more variable: individual_local_identifier <fct>
…
mt_stack(lbbg_data, kinkajous_data)
#> A <move2> with `track_id_column` "individual_local_identifier" and
#> `time_column` "timestamp"
#> Containing 7 tracks lasting on average 149266 secs in a
#> Simple feature collection with 11247 features and 3 fields (with 10445 geometries empty)
#> Geometry type: POINT
#> Dimension:     XY
#> Bounding box:  xmin: -79.74329 ymin: 9.136739 xmax: 2.975934 ymax: 50.48241
#> Geodetic CRS:  WGS 84
#> # A tibble: 11,247 × 4
#>    acceleration             geometry timestamp          
#>  *        <acc>          <POINT [°]> <dttm>             
#>  1           NA (0.9766757 49.94388) 2021-03-03 00:46:30
#>  2           NA  (1.216243 50.01877) 2021-03-03 01:46:31
#>  3           NA  (1.275341 50.04811) 2021-03-03 02:46:41
#>  4           NA  (1.273401 50.04827) 2021-03-03 03:07:07
#>  5           NA  (1.270243 50.04776) 2021-03-03 03:27:18
#>  6           NA  (1.265624 50.04643) 2021-03-03 03:47:19
#>  7           NA  (1.259936 50.04491) 2021-03-03 04:07:20
#>  8           NA  (1.253495 50.04293) 2021-03-03 04:27:36
#>  9           NA  (1.246066 50.04075) 2021-03-03 04:47:34
#> 10           NA  (1.237192 50.03854) 2021-03-03 05:07:33
#> # ℹ 11,237 more rows
#> # ℹ 1 more variable: individual_local_identifier <fct>
…
